﻿  allocators.c
  containers.c
  jln.c
  Generating Code...
C:\Users\Travis\Desktop\game\dependencies\lua\lua-5.3.5_Win32_bin\lua53.dll : fatal error LNK1107: invalid or corrupt file: cannot read at 0x448
